Retnlg,Ncoa4,Ccndbp1,Eef1g,Fpr2,Acsl1,Rb1,Ngp,Kpna1,LOC100041703,Bnip3l,1-Sep,Npm1,Rnf20,Foxc1,Iscu,Sqstm1,Eif3s8,Lcn2,Tfdp2,Esco2,Slc25a39,Cps1,Stk40,Gstt1,Ccl5,LOC100044829,Spna1,Cat,Usp15,Time,Aldh1a1,A330080J22Rik,Ppp1cb,Mthfd2,Calcrl,Hbq1,Psme3,Serpina3g,Gda,Chi3l3,Pgp,Gypa,Fech
0.4298029,-0.12150097,-0.07103157,2.8009806,0.082829,0.002426148,-0.06798172,-0.44742823,0.12351704,0.09131241,0.121614456,-0.051696777,3.087679,-0.012190342,3.2922926,-0.101396084,-0.3848014,-0.17775154,-0.17073202,0.13597298,0.017706394,-0.11798525,3.59648085,0.015480518,-0.28385544,0.2401905,2.6079092,-0.043519974,-0.015381813,-0.13872766,0.0,0.35241938,-0.04491043,-0.117203236,-0.24900436,-0.18362808,0.2842369,0.074193,-0.20967817,0.22391558,0.231318,3.2151046,-0.06398535,-0.012076378
0.32622528,-0.07174873,-0.00306797,2.7501383,-0.08599806,0.3276863,0.119826792,-0.18969107,0.15620804,0.102160454,0.23787594,-0.075307846,3.1029387,0.0859046,3.3591442,0.1467061,-0.010067463,-0.11219692,0.057540417,0.409383295,-0.04921007,-0.15164709,3.8682723,0.02271986,-0.06731272,0.12704468,2.5290117,0.30959702,0.34936333,0.13623857,1.0,0.37736464,0.20700455,0.04990816,-0.37984562,0.050898552,-0.026330948,0.27657986,-0.4848199,0.69119596,0.000286,3.2556272,0.49549055,0.08118057
1.1918516,-3.4849596,0.19513512,2.2970314,0.32855368,-0.5648899,0.364982605,-0.29127264,0.10574913,0.34956932,0.21776676,-0.29049397,2.4991274,0.16492796,2.40419,0.16986227,-1.190949,-0.7768564,0.30123758,-0.17096137,-0.012547016,0.13075209,3.22023345,0.0931344,-0.13707161,0.15142441,2.4893122,0.58359814,0.64920807,-0.68488073,2.0,0.6848216,-0.8040552,-2.2963023,-0.29839134,0.16313457,0.44566536,0.21704483,-0.47223806,0.082576275,0.5203147,2.375465,0.22601557,-4.105463
0.8532047,-0.13361263,0.00306797,2.0907583,0.7989936,0.45481873,-0.00272226,-0.11288023,0.15815067,0.048127174,0.06855297,0.018371582,2.1726465,0.05437708,2.8210592,0.16356039,-0.057843685,0.007554054,1.4285026,0.28842926,0.093755245,0.1526618,2.9145755,0.12093878,-0.029681206,-0.07438755,2.121416,0.3892498,0.30693722,-0.24309778,3.0,0.35029745,0.12046623,-0.103322506,0.5009327,0.03535843,0.24920464,0.40706348,-0.43464327,0.41052103,0.36161613,2.5589566,0.099538326,0.23316765
0.71363926,-0.22795105,-0.25911236,2.483141,0.75052214,0.10830021,-0.03987312,-0.24478292,0.19159794,0.3124218,-0.020170212,-0.34805298,2.7977085,-0.02978468,3.1753855,-0.14260721,-0.25906324,-0.12805367,0.5938859,-0.091535093,-0.10247183,-0.34576273,3.602955,0.090096,-0.005164146,-0.63432693,2.342596,0.14499474,0.1255331,-0.012311459,4.0,0.29114866,-0.3491373,-0.14970064,0.22861099,0.20175362,-0.0826416,0.1311655,0.7561488,0.23677206,0.45934534,3.0452914,0.07646227,-0.28075218
0.2383728,0.18248653,0.35519314,2.245615,0.996037,0.29566002,0.4460268,0.10476065,0.35770702,0.60683346,0.18784618,-0.31846714,2.7332764,0.28931475,2.949585,0.30263472,-0.05709219,-0.082764626,-0.30794,0.124488831,0.33088827,0.02033186,3.4248824,-0.014974117,0.009098053,-1.5893583,2.3113184,0.54333496,0.41680527,-0.121861935,5.0,0.6529727,0.06694031,-0.03261423,0.62764645,0.2614107,-0.031122208,0.28242397,2.671142,0.7469392,1.1700149,2.7377496,0.28789186,0.2618494
-0.24719524,-0.038440704,0.20415306,1.847847,0.3936515,0.15065384,0.044865609,0.08551359,-0.012259483,0.36133003,0.081516266,-0.03118229,2.3534546,0.018538952,2.5289984,-0.002113819,-0.008268833,-0.10669708,-0.18228102,0.064050195,0.14628172,0.038364887,2.87345835,-0.1842618,-0.001923561,-0.26471138,1.7561808,0.03556919,0.172266,0.11925173,6.0,0.62192965,0.077038765,0.013001919,0.018571854,0.22606468,-0.004498482,0.14759254,2.0155864,0.29019403,0.5524993,2.2955785,0.3775792,-0.009160996
0.38275814,-1.5016956,-1.1490173,2.061202,1.1328998,-0.9137516,-0.801240435,0.32451582,-0.76821995,-0.3077507,-1.3623362,-0.39132118,2.6374683,-0.39998198,2.8538132,-1.3316627,-0.62816286,0.16414452,0.22219133,-1.5063162,-0.7887721,-1.4690862,3.0044947,-0.10660696,0.099084854,1.9673414,1.9691019,-1.0341816,-1.4846458,-0.32372808,7.0,-0.4402051,-1.3978662,-1.05088,-1.1427479,-0.18389988,-1.3645926,-1.4693813,2.3975186,-0.81276274,1.6583514,2.71845,-1.8450713,-1.4029999
1.5636959,-2.71937,-3.0572395,2.1222315,1.8426404,-1.1737108,-1.4835877,0.43084383,-1.0847511,-0.5133877,-2.779211,-0.5801153,2.7803478,-0.63313055,3.1123886,-2.9620652,-0.8277955,-0.12183094,1.8415475,-2.9753747,-1.132834,-3.1144404,3.1239137,-0.207129,0.10353184,2.780734,1.8819551,-1.2861366,-2.7436094,-0.4769616,8.0,-2.0045686,-2.7070885,-1.785996,-1.6638231,-0.2648368,-2.966916,-2.9427786,2.340671,-2.0968556,2.5579724,2.864859,-3.2273307,-2.8244257
3.3669806,-1.9252739,-1.9962702,2.2932777,3.9028907,-0.26120758,-0.456371785,3.334993,-0.99566746,0.76621246,-1.5050983,0.21014118,2.738203,-0.5348716,3.0185509,-1.3065648,0.08631182,0.755044,4.451596,-1.22096345,-0.9596057,-1.8097177,3.2707033,0.16473627,2.128456,3.462246,2.3169422,-0.54768753,-1.3053837,-0.18030119,9.0,-1.0822663,-0.6904583,-0.6954255,-1.477994,-0.32893705,-2.915371,-1.6357088,3.5438323,-0.17112398,4.9923368,3.050012,-1.3859057,-1.189106
2.8430471,-0.39178467,-0.53384876,2.737321,3.5319057,0.35407734,0.56650878,2.7883153,-0.2285099,0.9375,-0.08863354,1.7221689,3.1578245,0.26618147,3.586811,-0.20911074,0.9749503,0.79769516,3.6173577,-0.04496336,-0.4572091,-0.34153605,4.01759525,0.23265791,3.5738697,2.630663,2.5186796,0.9717083,0.3869877,-0.34193945,10.0,-0.35564852,0.09187317,0.26477575,-0.3488989,0.000822,-1.6655931,0.22596455,2.4209456,0.77414465,4.6222672,3.5176501,0.23050451,0.25845146
0.7393713,0.9953184,0.42930698,1.2038631,1.9882588,1.4368305,0.529888635,1.00699,0.5118151,0.047880173,0.2719469,2.8258991,1.3176699,0.4620881,1.6884785,0.58133936,2.4132934,1.9332676,1.6986918,0.7088156,0.39010763,0.72643137,1.6856923,0.3754859,2.645177,1.552,1.0718336,1.326971,1.0719805,1.1820273,11.0,-0.043645382,0.9977274,1.9288106,0.8516989,0.43069935,-0.43668175,1.269578,1.285234,1.4712605,4.105146,1.7118754,1.2212148,1.3707743
-0.026402473,1.7446737,0.94316196,0.80874634,0.9769435,2.3235292,1.37704945,0.46837473,1.4391708,1.0358849,0.2971449,3.1154852,1.2761679,0.7161517,1.0317421,0.7327304,2.8807483,1.8339014,0.75129366,1.15730765,1.0724425,1.1164432,1.3930483,1.3483233,1.731596,1.4838915,0.7696247,1.6384478,1.6255693,1.3244557,12.0,0.42014456,1.3529186,2.3822408,1.5767641,1.4255753,0.13621521,1.6952143,0.8773837,1.4206624,2.985911,0.97442484,2.1807094,1.2971354
-2.4919786,3.5652847,1.8266382,-1.0432701,-0.4314971,4.0275784,3.3508582,-0.22458029,3.3170996,2.3695402,0.30339527,2.6299715,-0.3870964,3.1964707,-0.042204857,0.64122915,2.7431855,2.9733715,-0.56436586,2.01390175,3.2287965,1.4158845,-0.081465958,3.6386123,0.15298843,0.32734776,-0.75617886,3.7728157,2.8691416,3.1408525,13.0,2.536965,2.145934,3.6679292,2.9245129,3.1184425,-1.5998726,1.9230127,0.34505796,3.2594485,0.74179745,-0.7156091,2.4467883,2.2181873
-2.1651983,1.2290096,0.82237434,-0.4058962,-0.778481,1.0505772,0.59121275,-0.006863117,0.83459854,3.5148106,0.48012543,0.84491634,0.48181248,1.0367398,0.7348461,0.38707972,0.88350344,-0.074611664,-0.594769,0.00068855,0.71609926,0.23607397,1.4178376,1.0563226,0.14261818,-0.042424202,0.15394497,0.89672565,0.47271633,0.4130273,14.0,1.0085835,0.001509666,1.6025815,0.23779011,0.8540211,-0.07397747,0.7122593,-0.86719656,0.66377497,-0.4767208,0.25506163,-0.4036889,0.46355247
-0.88137245,0.46776485,0.26417828,1.0123234,0.027218342,1.2351112,0.383416175,0.34210062,0.5032368,-0.25020695,0.10406685,0.75743484,1.6497889,0.34054518,1.5965385,0.25803995,1.007669,0.032310486,0.004890919,0.424446105,0.1732068,0.42881727,1.84618855,-0.16902399,-0.023153305,0.5753927,1.0293779,0.43252182,0.02419281,0.57033205,15.0,0.5791421,0.7356272,1.0228248,-0.50834084,0.20070553,-0.010800362,0.53915787,-0.5127568,0.8710036,0.2242732,1.3335443,0.80635023,0.53363323
-1.8008327,1.2629738,0.7085123,0.8789959,-0.9836488,1.7364492,0.52257442,0.19827223,0.7120695,0.17961502,0.616663,0.8403034,1.1360855,0.5244136,1.6042366,0.83714247,1.1791005,-0.16030979,-0.2668376,0.98088265,0.4289813,1.0115466,2.0820327,0.044486523,-0.015316486,-0.4133358,0.8528738,1.0369062,0.86423016,0.9758277,16.0,1.130527,1.2424145,1.3552175,0.6628828,0.22967434,0.1580801,1.2882442,-0.8315091,1.1870341,-0.9533105,1.3610063,0.89916754,1.3068762
-0.44676018,1.3796816,1.0124865,1.7421045,-0.54691744,1.3178787,0.95121525,0.6622844,1.2866507,0.005321503,0.6291485,0.630249,2.2163668,0.7743602,2.3065615,0.8641362,0.654181,-0.17762852,0.10225344,0.97651435,0.08648348,1.0175261,2.719244,0.09563589,-0.05814457,0.20086479,1.5698462,1.177227,0.5294485,0.781919,17.0,1.6167026,1.0978317,1.4693933,-0.36057568,0.03868532,1.3261929,1.3473845,-0.33549547,1.5505719,-0.18541479,1.9553523,0.37117338,1.2804918
-0.17904663,0.5754385,0.3522339,2.4015427,-0.38307524,0.681509,0.504274845,0.2809863,0.8555441,-0.17363644,0.5742407,0.3047428,2.8117342,0.41368914,3.112381,0.41934824,0.21431303,-0.4758029,0.053748608,0.62536525,0.26823187,0.48980093,3.5495157,-0.08973551,-0.03306818,0.93202305,2.2960014,0.37050438,0.45335674,0.23567724,18.0,1.1609588,0.57896805,0.79728365,-1.0236378,0.20239449,0.9995909,0.7537317,-0.24290323,1.0537343,-0.64687586,2.7111192,0.08014536,0.57566833
